%YAML 1.1
%TAG !u! tag:unity3d.com,2011:
--- !u!21 &2100000
Material:
  serializedVersion: 6
  m_ObjectHideFlags: 0
  m_CorrespondingSourceObject: {fileID: 0}
  m_PrefabInstance: {fileID: 0}
  m_PrefabAsset: {fileID: 0}
  m_Name: URP_Tree_Large_Color
  m_Shader: {fileID: 4800000, guid: aa5c7aae3d4ad6c498f158dc77129db3, type: 3}
  m_ShaderKeywords: _ALPHATEST_ON
  m_LightmapFlags: 4
  m_EnableInstancingVariants: 0
  m_DoubleSidedGI: 1
  m_CustomRenderQueue: -1
  stringTagMap:
    MotionVector: User
  disabledShaderPasses:
  - MOTIONVECTORS
  - SHADOWCASTER
  m_SavedProperties:
    serializedVersion: 3
    m_TexEnvs:
    - Texture2D_3CC75AC0:
        m_Texture: {fileID: 2800000, guid: 4de30b3c31d15fb42ba513556b0b264e, type: 3}
        m_Scale: {x: 1, y: 1}
        m_Offset: {x: 0, y: 0}
    - Texture2D_FEDE746A:
        m_Texture: {fileID: 2800000, guid: 32e11fd670d8e5e40b42a6d7a49b2f59, type: 3}
        m_Scale: {x: 1, y: 1}
        m_Offset: {x: 0, y: 0}
    - _Albedo:
        m_Texture: {fileID: 2800000, guid: 7ea45a7a8bc7a4549b19dd223b380d2a, type: 3}
        m_Scale: {x: 1, y: 1}
        m_Offset: {x: 0, y: 0}
    - _AlbedoMask:
        m_Texture: {fileID: 2800000, guid: 32e11fd670d8e5e40b42a6d7a49b2f59, type: 3}
        m_Scale: {x: 1, y: 1}
        m_Offset: {x: 0, y: 0}
    - _BaseMap:
        m_Texture: {fileID: 2800000, guid: 4de30b3c31d15fb42ba513556b0b264e, type: 3}
        m_Scale: {x: 1, y: 1}
        m_Offset: {x: 0, y: 0}
    - _BumpMap:
        m_Texture: {fileID: 0}
        m_Scale: {x: 1, y: 1}
        m_Offset: {x: 0, y: 0}
    - _DetailAlbedoMap:
        m_Texture: {fileID: 0}
        m_Scale: {x: 1, y: 1}
        m_Offset: {x: 0, y: 0}
    - _DetailMask:
        m_Texture: {fileID: 0}
        m_Scale: {x: 1, y: 1}
        m_Offset: {x: 0, y: 0}
    - _DetailNormalMap:
        m_Texture: {fileID: 0}
        m_Scale: {x: 1, y: 1}
        m_Offset: {x: 0, y: 0}
    - _DetailTex:
        m_Texture: {fileID: 0}
        m_Scale: {x: 1, y: 1}
        m_Offset: {x: 0, y: 0}
    - _EmissionMap:
        m_Texture: {fileID: 0}
        m_Scale: {x: 1, y: 1}
        m_Offset: {x: 0, y: 0}
    - _ExtraTex:
        m_Texture: {fileID: 0}
        m_Scale: {x: 1, y: 1}
        m_Offset: {x: 0, y: 0}
    - _MainTex:
        m_Texture: {fileID: 2800000, guid: 4de30b3c31d15fb42ba513556b0b264e, type: 3}
        m_Scale: {x: 1, y: 1}
        m_Offset: {x: 0, y: 0}
    - _MetallicGlossMap:
        m_Texture: {fileID: 0}
        m_Scale: {x: 1, y: 1}
        m_Offset: {x: 0, y: 0}
    - _OcclusionMap:
        m_Texture: {fileID: 0}
        m_Scale: {x: 1, y: 1}
        m_Offset: {x: 0, y: 0}
    - _ParallaxMap:
        m_Texture: {fileID: 0}
        m_Scale: {x: 1, y: 1}
        m_Offset: {x: 0, y: 0}
    - _SpecGlossMap:
        m_Texture: {fileID: 0}
        m_Scale: {x: 1, y: 1}
        m_Offset: {x: 0, y: 0}
    - _SubsurfaceTex:
        m_Texture: {fileID: 0}
        m_Scale: {x: 1, y: 1}
        m_Offset: {x: 0, y: 0}
    - _TextureSample0:
        m_Texture: {fileID: 0}
        m_Scale: {x: 1, y: 1}
        m_Offset: {x: 0, y: 0}
    - _TextureSample1:
        m_Texture: {fileID: 0}
        m_Scale: {x: 1, y: 1}
        m_Offset: {x: 0, y: 0}
    - _texcoord:
        m_Texture: {fileID: 0}
        m_Scale: {x: 1, y: 1}
        m_Offset: {x: 0, y: 0}
    m_Floats:
    - Vector1_22370713: 1
    - Vector1_B248DF79: 0.05
    - Vector1_B8E2FA07: 1
    - Vector1_C6529BE: 0.5
    - _AlphaClip: 1
    - _BillboardKwToggle: 0
    - _BillboardShadowFade: 0.5
    - _Blend: 0
    - _BumpScale: 1
    - _Cull: 0
    - _CullMode: 0
    - _Cutoff: 0.197
    - _DetailNormalMapScale: 1
    - _DstBlend: 10
    - _GG: 1
    - _GlossMapScale: 1
    - _Glossiness: 0
    - _GlossinessSource: 0
    - _GlossyReflections: 1
    - _HueVariationKwToggle: 0
    - _LeafSpeed: 0.099
    - _LeafWindStrength: 0.099
    - _LeavesWindSpeed: 0.313
    - _LeavesWindStrength: 0.01
    - _Metallic: 0
    - _Mode: 0
    - _NormalMapKwToggle: 0
    - _OcclusionStrength: 1
    - _Parallax: 0.02
    - _QueueOffset: 0
    - _ReceiveShadows: 0
    - _SSSIntensity: 12.5
    - _SSSScale: 0.0009
    - _SampleGI: 0
    - _Shininess: 0.1
    - _Smoothness: 0.073
    - _SmoothnessSource: 0
    - _SmoothnessTextureChannel: 0
    - _SpecSource: 0
    - _SpecularHighlights: 1
    - _SrcBlend: 5
    - _SubsuraceDistortion: 0.665
    - _SubsurfaceIndirect: 0.25
    - _SubsurfaceKwToggle: 0
    - _Surface: 1
    - _TwoSided: 0
    - _UVSec: 0
    - _WindMultiplier: 1
    - _WindQuality: 0
    - _WindSpeed: 0.023
    - _WindStrength: 0.036
    - _ZWrite: 0
    - __dirty: 0
    m_Colors:
    - Color_2F8B3538: {r: 0.44679195, g: 0.6132076, b: 0.00867745, a: 1}
    - Vector2_3FE1035C: {r: 0, g: 1.8, b: 0, a: 0}
    - Vector2_5BCDA59A: {r: 1.8, g: 0, b: 0, a: 0}
    - _AlbedoTint: {r: 0.4712531, g: 0.6226415, b: 0.19090424, a: 1}
    - _BaseColor: {r: 0.2649884, g: 0.9150943, b: 0.14244394, a: 1}
    - _Color: {r: 0.59059274, g: 0.9150943, b: 0, a: 1}
    - _EmissionColor: {r: 0, g: 0, b: 0, a: 1}
    - _HueVariation: {r: 1, g: 0.5, b: 0, a: 0.1}
    - _HueVariationColor: {r: 1, g: 0.5, b: 0, a: 0.1}
    - _SpecColor: {r: 0.5, g: 0.5, b: 0.5, a: 0.5}
    - _SpecularColor: {r: 0.39215687, g: 0.39215687, b: 0.39215687, a: 1}
    - _SubsurfaceColor: {r: 0.6460039, g: 0.8490566, b: 0.27634388, a: 1}
  m_BuildTextureStacks: []
--- !u!114 &5737103832133819266
MonoBehaviour:
  m_ObjectHideFlags: 11
  m_CorrespondingSourceObject: {fileID: 0}
  m_PrefabInstance: {fileID: 0}
  m_PrefabAsset: {fileID: 0}
  m_GameObject: {fileID: 0}
  m_Enabled: 1
  m_EditorHideFlags: 0
  m_Script: {fileID: 11500000, guid: d0353a89b1f911e48b9e16bdc9f2e058, type: 3}
  m_Name: 
  m_EditorClassIdentifier: 
  version: 2
