%YAML 1.1
%TAG !u! tag:unity3d.com,2011:
--- !u!114 &-5420475380659962937
MonoBehaviour:
  m_ObjectHideFlags: 11
  m_CorrespondingSourceObject: {fileID: 0}
  m_PrefabInstance: {fileID: 0}
  m_PrefabAsset: {fileID: 0}
  m_GameObject: {fileID: 0}
  m_Enabled: 1
  m_EditorHideFlags: 0
  m_Script: {fileID: 11500000, guid: d0353a89b1f911e48b9e16bdc9f2e058, type: 3}
  m_Name: 
  m_EditorClassIdentifier: 
  version: 2
--- !u!21 &2100000
Material:
  serializedVersion: 6
  m_ObjectHideFlags: 0
  m_CorrespondingSourceObject: {fileID: 0}
  m_PrefabInstance: {fileID: 0}
  m_PrefabAsset: {fileID: 0}
  m_Name: Dissolve
  m_Shader: {fileID: -6465566751694194690, guid: 39e72387eb1394a4586128e6a8a3d8d5, type: 3}
  m_ShaderKeywords: 
  m_LightmapFlags: 2
  m_EnableInstancingVariants: 1
  m_DoubleSidedGI: 0
  m_CustomRenderQueue: -1
  stringTagMap: {}
  disabledShaderPasses: []
  m_SavedProperties:
    serializedVersion: 3
    m_TexEnvs: []
    m_Floats:
    - _CutoffHeight: 0
    - _EdgeWidth: 0.09
    - _NoiseScale: 95.9
    - _NoiseStrength: 1
    m_Colors:
    - _Albedo: {r: 1, g: 1, b: 1, a: 1}
    - _EdgeColor: {r: 32, g: 32, b: 32, a: 1}
  m_BuildTextureStacks: []
