%YAML 1.1
%TAG !u! tag:unity3d.com,2011:
--- !u!21 &2100000
Material:
  serializedVersion: 6
  m_ObjectHideFlags: 0
  m_CorrespondingSourceObject: {fileID: 0}
  m_PrefabInstance: {fileID: 0}
  m_PrefabAsset: {fileID: 0}
  m_Name: M_GrassColor
  m_Shader: {fileID: 4800000, guid: a0b0958516c01fd4bb99d594100f78c7, type: 3}
  m_ShaderKeywords: _ALPHATEST_ON
  m_LightmapFlags: 4
  m_EnableInstancingVariants: 1
  m_DoubleSidedGI: 0
  m_CustomRenderQueue: -1
  stringTagMap: {}
  disabledShaderPasses: []
  m_SavedProperties:
    serializedVersion: 3
    m_TexEnvs:
    - _Albedo:
        m_Texture: {fileID: 2800000, guid: 83aa432230935474cb4b81b96f9f8642, type: 3}
        m_Scale: {x: 1, y: 1}
        m_Offset: {x: 0, y: 0}
    - _AlbedoMask:
        m_Texture: {fileID: 0}
        m_Scale: {x: 1, y: 1}
        m_Offset: {x: 0, y: 0}
    - _BumpMap:
        m_Texture: {fileID: 0}
        m_Scale: {x: 1, y: 1}
        m_Offset: {x: 0, y: 0}
    - _DetailAlbedoMap:
        m_Texture: {fileID: 0}
        m_Scale: {x: 1, y: 1}
        m_Offset: {x: 0, y: 0}
    - _DetailMask:
        m_Texture: {fileID: 0}
        m_Scale: {x: 1, y: 1}
        m_Offset: {x: 0, y: 0}
    - _DetailNormalMap:
        m_Texture: {fileID: 0}
        m_Scale: {x: 1, y: 1}
        m_Offset: {x: 0, y: 0}
    - _EmissionMap:
        m_Texture: {fileID: 0}
        m_Scale: {x: 1, y: 1}
        m_Offset: {x: 0, y: 0}
    - _Emissive:
        m_Texture: {fileID: 0}
        m_Scale: {x: 1, y: 1}
        m_Offset: {x: 0, y: 0}
    - _MainTex:
        m_Texture: {fileID: 2800000, guid: 02a01c3d032c3c248be79c33315fb141, type: 3}
        m_Scale: {x: 1, y: 1}
        m_Offset: {x: 0, y: 0}
    - _Metallic:
        m_Texture: {fileID: 0}
        m_Scale: {x: 1, y: 1}
        m_Offset: {x: 0, y: 0}
    - _MetallicGlossMap:
        m_Texture: {fileID: 0}
        m_Scale: {x: 1, y: 1}
        m_Offset: {x: 0, y: 0}
    - _Normal:
        m_Texture: {fileID: 0}
        m_Scale: {x: 1, y: 1}
        m_Offset: {x: 0, y: 0}
    - _OcclusionMap:
        m_Texture: {fileID: 0}
        m_Scale: {x: 1, y: 1}
        m_Offset: {x: 0, y: 0}
    - _ParallaxMap:
        m_Texture: {fileID: 0}
        m_Scale: {x: 1, y: 1}
        m_Offset: {x: 0, y: 0}
    - _Roughness:
        m_Texture: {fileID: 0}
        m_Scale: {x: 1, y: 1}
        m_Offset: {x: 0, y: 0}
    - _SpecGlossMap:
        m_Texture: {fileID: 0}
        m_Scale: {x: 1, y: 1}
        m_Offset: {x: 0, y: 0}
    - _TextureSample0:
        m_Texture: {fileID: 0}
        m_Scale: {x: 1, y: 1}
        m_Offset: {x: 0, y: 0}
    - _TextureSample1:
        m_Texture: {fileID: 0}
        m_Scale: {x: 1, y: 1}
        m_Offset: {x: 0, y: 0}
    - _dMainTex:
        m_Texture: {fileID: 2800000, guid: 83aa432230935474cb4b81b96f9f8642, type: 3}
        m_Scale: {x: 1, y: 1}
        m_Offset: {x: 0, y: 0}
    - _texcoord:
        m_Texture: {fileID: 0}
        m_Scale: {x: 1, y: 1}
        m_Offset: {x: 0, y: 0}
    m_Floats:
    - _AO: 2.4
    - _BaseLight: 0.35
    - _BranchPhase: 0
    - _BumpScale: 1
    - _CullMode: 0
    - _Cutoff: 0.05
    - _DetailNormalMapScale: 1
    - _DstBlend: 0
    - _EdgeFlutter: 1
    - _EmissiveIntensity: 0
    - _Frequency: 0.397
    - _GG: 1
    - _GlossMapScale: 1
    - _Glossiness: 0.5
    - _GlossyReflections: 1
    - _LeafSpeed: 0.285
    - _LeafWindStrength: 0.111
    - _LeavesWindSpeed: 0.34
    - _LeavesWindStrength: 0.0305
    - _Metallic: 0
    - _MetallicIntensity: 1
    - _Mode: 1
    - _NormalIntensity: 1
    - _Occlusion: 7.5
    - _OcclusionStrength: 1
    - _Parallax: 0.02
    - _PrimaryFactor: 0
    - _RoughnessIntensity: 1
    - _SSSIntensity: 0
    - _SSSScale: 0.0089
    - _SecondaryFactor: 0
    - _Shininess: 0.1
    - _Smoothness: 0.19
    - _SmoothnessTextureChannel: 0
    - _SpecularHighlights: 1
    - _SquashAmount: 1
    - _SrcBlend: 1
    - _SubsuraceDistortion: 0
    - _TessValue: 15
    - _UVSec: 0
    - _WindMultiplier: 1
    - _WindQuality: 0
    - _WindSpeed: 0.435
    - _WindStrength: 0.007
    - _WorldPositionSpeed: 1.87
    - _XZWave: 0.046
    - _YWave: 0.09
    - _ZWrite: 1
    - __dirty: 0
    m_Colors:
    - _AlbedoTint: {r: 0.6345118, g: 0.8018868, b: 0.13238695, a: 1}
    - _Color: {r: 0.41509432, g: 0.41509432, b: 0.41509432, a: 1}
    - _Color0: {r: 1, g: 1, b: 1, a: 0}
    - _EmissionColor: {r: 0, g: 0, b: 0, a: 1}
    - _HueVariation: {r: 1, g: 0.5, b: 0, a: 0.1}
    - _SpecularColor: {r: 0.39215687, g: 0.39215687, b: 0.39215687, a: 1}
    - _SubsurfaceColor: {r: 0.52358484, g: 0.8213491, b: 1, a: 1}
    - _TreeInstanceColor: {r: 0, g: 0, b: 0, a: 0}
    - _TreeInstanceScale: {r: 0, g: 0, b: 0, a: 0}
    - _TreeOffset: {r: 0, g: 5, b: 0, a: 0}
    - _WaveAndDistance: {r: 12, g: 3.6, b: 1, a: 1}
    - _WavingTint: {r: 0.7019608, g: 0.6, b: 0.5019608, a: 0}
  m_BuildTextureStacks: []
