%YAML 1.1
%TAG !u! tag:unity3d.com,2011:
--- !u!21 &2100000
Material:
  serializedVersion: 6
  m_ObjectHideFlags: 0
  m_CorrespondingSourceObject: {fileID: 0}
  m_PrefabInstance: {fileID: 0}
  m_PrefabAsset: {fileID: 0}
  m_Name: Stylized Water 2
  m_Shader: {fileID: 4800000, guid: c8110ef7c96474f73b2ee5f90e026b10, type: 3}
  m_ShaderKeywords: FANCY_SHADOWS SAMPLE_SHADOWS SHADOWS
  m_LightmapFlags: 4
  m_EnableInstancingVariants: 0
  m_DoubleSidedGI: 0
  m_CustomRenderQueue: -1
  stringTagMap: {}
  disabledShaderPasses: []
  m_SavedProperties:
    serializedVersion: 3
    m_TexEnvs:
    - _FoamTexture:
        m_Texture: {fileID: 2800000, guid: 0aef2eb065fd04509a54f6f349c65956, type: 3}
        m_Scale: {x: 1, y: 1}
        m_Offset: {x: 0, y: 0}
    - _SparklesNormalMap:
        m_Texture: {fileID: 2800000, guid: b87c6510a4b3945a197eabf8b0d60278, type: 3}
        m_Scale: {x: 1, y: 1}
        m_Offset: {x: 0, y: 0}
    - _WaveNormalMap:
        m_Texture: {fileID: 0}
        m_Scale: {x: 1, y: 1}
        m_Offset: {x: 0, y: 0}
    m_Floats:
    - _DepthDensity: 1
    - _DistanceDensity: 0.036
    - _EdgeFoamDepth: 0.5
    - _FancyShadows: 1
    - _FoamContribution: 0.657
    - _FoamNoiseScale: 0.32
    - _FoamScale: 10
    - _FoamSpeed: 0.1
    - _MaxSampleDistance: 49
    - _MaxShadowDistance: 50
    - _ReflectionContribution: 0
    - _RefractionStrength: 0
    - _SparkleExponent: 1
    - _SparkleScale: 1
    - _SparkleSpeed: 1
    - _SunSpecularExponent: 1
    - _VertexNormalDelta: 0.01
    - _Wave1Amplitude: 0.1
    - _Wave1Direction: 0.382
    - _Wave1Speed: 0.25
    - _Wave1Wavelength: 2
    - _Wave2Amplitude: 0.15
    - _Wave2Direction: 0.618
    - _Wave2Speed: 1
    - _Wave2Wavelength: 7.5
    - _WaveNormalDelta: 0.01
    - _WaveNormalScale: 50
    - _WaveNormalSpeed: 0.01
    m_Colors:
    - _DeepColor: {r: 0.007843138, g: 0.101960786, b: 0.27450982, a: 1}
    - _EdgeFoamColor: {r: 1, g: 1, b: 1, a: 1}
    - _FarColor: {r: 0.4199893, g: 0.6281696, b: 0.735849, a: 1}
    - _SSSColor: {r: 0, g: 0, b: 0, a: 1}
    - _ShadowColor: {r: 0.16220185, g: 0.2170624, b: 0.254717, a: 1}
    - _ShallowColor: {r: 0.16687432, g: 0.9983149, b: 1.4150944, a: 1}
    - _SparkleColor: {r: 0, g: 0, b: 0, a: 1}
    - _SunSpecularColor: {r: 0, g: 0, b: 0, a: 1}
