%YAML 1.1
%TAG !u! tag:unity3d.com,2011:
--- !u!114 &2981495340580296626
MonoBehaviour:
  m_ObjectHideFlags: 0
  m_CorrespondingSourceObject: {fileID: 0}
  m_PrefabInstance: {fileID: 0}
  m_PrefabAsset: {fileID: 0}
  m_GameObject: {fileID: 5899514996949582459}
  m_Enabled: 1
  m_EditorHideFlags: 0
  m_Script: {fileID: 11500000, guid: 5c61a3b29e0cf7146995337f199d6322, type: 3}
  m_Name: 
  m_EditorClassIdentifier: 
  Targets: []
--- !u!1 &2981495341091678303
GameObject:
  m_ObjectHideFlags: 0
  m_CorrespondingSourceObject: {fileID: 0}
  m_PrefabInstance: {fileID: 0}
  m_PrefabAsset: {fileID: 0}
  serializedVersion: 6
  m_Component:
  - component: {fileID: 2981495341091678296}
  - component: {fileID: 2981495341091678297}
  m_Layer: 0
  m_Name: Compass
  m_TagString: Untagged
  m_Icon: {fileID: 0}
  m_NavMeshLayer: 0
  m_StaticEditorFlags: 0
  m_IsActive: 1
--- !u!4 &2981495341091678296
Transform:
  m_ObjectHideFlags: 0
  m_CorrespondingSourceObject: {fileID: 0}
  m_PrefabInstance: {fileID: 0}
  m_PrefabAsset: {fileID: 0}
  m_GameObject: {fileID: 2981495341091678303}
  m_LocalRotation: {x: -0, y: -0.43835896, z: -0, w: 0.8988}
  m_LocalPosition: {x: 38.8, y: 0, z: 145.6}
  m_LocalScale: {x: 1, y: 1, z: 1}
  m_Children:
  - {fileID: 3380759980711969414}
  m_Father: {fileID: 0}
  m_RootOrder: 0
  m_LocalEulerAnglesHint: {x: 0, y: -51.998, z: 0}
--- !u!114 &2981495341091678297
MonoBehaviour:
  m_ObjectHideFlags: 0
  m_CorrespondingSourceObject: {fileID: 0}
  m_PrefabInstance: {fileID: 0}
  m_PrefabAsset: {fileID: 0}
  m_GameObject: {fileID: 2981495341091678303}
  m_Enabled: 1
  m_EditorHideFlags: 0
  m_Script: {fileID: 11500000, guid: 2043c14e825871b448a3d6bb99b54056, type: 3}
  m_Name: 
  m_EditorClassIdentifier: 
  target: {fileID: 0}
--- !u!1001 &2981495340392047981
PrefabInstance:
  m_ObjectHideFlags: 0
  serializedVersion: 2
  m_Modification:
    m_TransformParent: {fileID: 2981495341091678296}
    m_Modifications:
    - target: {fileID: -8679921383154817045, guid: e03f3b9e2437f5842b31e92425be62b2, type: 3}
      propertyPath: m_LocalPosition.x
      value: 0
      objectReference: {fileID: 0}
    - target: {fileID: -8679921383154817045, guid: e03f3b9e2437f5842b31e92425be62b2, type: 3}
      propertyPath: m_LocalPosition.y
      value: 0
      objectReference: {fileID: 0}
    - target: {fileID: -8679921383154817045, guid: e03f3b9e2437f5842b31e92425be62b2, type: 3}
      propertyPath: m_LocalPosition.z
      value: 0
      objectReference: {fileID: 0}
    - target: {fileID: -8679921383154817045, guid: e03f3b9e2437f5842b31e92425be62b2, type: 3}
      propertyPath: m_LocalRotation.x
      value: 0
      objectReference: {fileID: 0}
    - target: {fileID: -8679921383154817045, guid: e03f3b9e2437f5842b31e92425be62b2, type: 3}
      propertyPath: m_LocalRotation.y
      value: 0
      objectReference: {fileID: 0}
    - target: {fileID: -8679921383154817045, guid: e03f3b9e2437f5842b31e92425be62b2, type: 3}
      propertyPath: m_LocalRotation.z
      value: 0
      objectReference: {fileID: 0}
    - target: {fileID: -8679921383154817045, guid: e03f3b9e2437f5842b31e92425be62b2, type: 3}
      propertyPath: m_LocalRotation.w
      value: 1
      objectReference: {fileID: 0}
    - target: {fileID: -8679921383154817045, guid: e03f3b9e2437f5842b31e92425be62b2, type: 3}
      propertyPath: m_RootOrder
      value: 0
      objectReference: {fileID: 0}
    - target: {fileID: -8679921383154817045, guid: e03f3b9e2437f5842b31e92425be62b2, type: 3}
      propertyPath: m_LocalEulerAnglesHint.x
      value: 0
      objectReference: {fileID: 0}
    - target: {fileID: -8679921383154817045, guid: e03f3b9e2437f5842b31e92425be62b2, type: 3}
      propertyPath: m_LocalEulerAnglesHint.y
      value: 0
      objectReference: {fileID: 0}
    - target: {fileID: -8679921383154817045, guid: e03f3b9e2437f5842b31e92425be62b2, type: 3}
      propertyPath: m_LocalEulerAnglesHint.z
      value: 0
      objectReference: {fileID: 0}
    - target: {fileID: -8679921383154817045, guid: e03f3b9e2437f5842b31e92425be62b2, type: 3}
      propertyPath: m_LocalScale.x
      value: 2.1
      objectReference: {fileID: 0}
    - target: {fileID: -8679921383154817045, guid: e03f3b9e2437f5842b31e92425be62b2, type: 3}
      propertyPath: m_LocalScale.y
      value: 2.1
      objectReference: {fileID: 0}
    - target: {fileID: -8679921383154817045, guid: e03f3b9e2437f5842b31e92425be62b2, type: 3}
      propertyPath: m_LocalScale.z
      value: 2.1
      objectReference: {fileID: 0}
    - target: {fileID: -5546747315237514756, guid: e03f3b9e2437f5842b31e92425be62b2, type: 3}
      propertyPath: m_Name
      value: Compass
      objectReference: {fileID: 0}
    - target: {fileID: -4718040791104185828, guid: e03f3b9e2437f5842b31e92425be62b2, type: 3}
      propertyPath: m_Materials.Array.data[0]
      value: 
      objectReference: {fileID: 2100000, guid: 841f8b94fcc762741b823d16a98e5896, type: 2}
    - target: {fileID: 919132149155446097, guid: e03f3b9e2437f5842b31e92425be62b2, type: 3}
      propertyPath: m_Name
      value: Compass
      objectReference: {fileID: 0}
    - target: {fileID: 1129496810705857465, guid: e03f3b9e2437f5842b31e92425be62b2, type: 3}
      propertyPath: m_Materials.Array.data[0]
      value: 
      objectReference: {fileID: 2100000, guid: 841f8b94fcc762741b823d16a98e5896, type: 2}
    - target: {fileID: 5666261585234168772, guid: e03f3b9e2437f5842b31e92425be62b2, type: 3}
      propertyPath: m_LocalRotation.x
      value: 0
      objectReference: {fileID: 0}
    - target: {fileID: 5666261585234168772, guid: e03f3b9e2437f5842b31e92425be62b2, type: 3}
      propertyPath: m_LocalRotation.z
      value: 0
      objectReference: {fileID: 0}
    - target: {fileID: 5666261585234168772, guid: e03f3b9e2437f5842b31e92425be62b2, type: 3}
      propertyPath: m_LocalRotation.w
      value: 1
      objectReference: {fileID: 0}
    - target: {fileID: 5993847947337725134, guid: e03f3b9e2437f5842b31e92425be62b2, type: 3}
      propertyPath: m_LocalRotation.x
      value: 0
      objectReference: {fileID: 0}
    - target: {fileID: 5993847947337725134, guid: e03f3b9e2437f5842b31e92425be62b2, type: 3}
      propertyPath: m_LocalRotation.z
      value: 0
      objectReference: {fileID: 0}
    - target: {fileID: 5993847947337725134, guid: e03f3b9e2437f5842b31e92425be62b2, type: 3}
      propertyPath: m_LocalRotation.w
      value: 1
      objectReference: {fileID: 0}
    - target: {fileID: 6426448320267853852, guid: e03f3b9e2437f5842b31e92425be62b2, type: 3}
      propertyPath: m_LocalRotation.x
      value: 0
      objectReference: {fileID: 0}
    - target: {fileID: 6426448320267853852, guid: e03f3b9e2437f5842b31e92425be62b2, type: 3}
      propertyPath: m_LocalRotation.z
      value: 0
      objectReference: {fileID: 0}
    - target: {fileID: 6426448320267853852, guid: e03f3b9e2437f5842b31e92425be62b2, type: 3}
      propertyPath: m_LocalRotation.w
      value: 1
      objectReference: {fileID: 0}
    - target: {fileID: 8089062573417005363, guid: e03f3b9e2437f5842b31e92425be62b2, type: 3}
      propertyPath: m_Materials.Array.data[0]
      value: 
      objectReference: {fileID: 2100000, guid: 841f8b94fcc762741b823d16a98e5896, type: 2}
    - target: {fileID: 8700725330082129686, guid: e03f3b9e2437f5842b31e92425be62b2, type: 3}
      propertyPath: m_Name
      value: CompassNeadle
      objectReference: {fileID: 0}
    m_RemovedComponents: []
  m_SourcePrefab: {fileID: 100100000, guid: e03f3b9e2437f5842b31e92425be62b2, type: 3}
--- !u!4 &3380759980711969414 stripped
Transform:
  m_CorrespondingSourceObject: {fileID: -8679921383154817045, guid: e03f3b9e2437f5842b31e92425be62b2, type: 3}
  m_PrefabInstance: {fileID: 2981495340392047981}
  m_PrefabAsset: {fileID: 0}
--- !u!1 &5899514996949582459 stripped
GameObject:
  m_CorrespondingSourceObject: {fileID: 8700725330082129686, guid: e03f3b9e2437f5842b31e92425be62b2, type: 3}
  m_PrefabInstance: {fileID: 2981495340392047981}
  m_PrefabAsset: {fileID: 0}
